SDS 355: Fall 2025 – A brief history of sabermetrics
…
# remotes::install_github("BillPetti/baseballr")
library(baseballr)
statcast_search_pitchers(
  start_date = "2025-08-30", 
  end_date = Sys.Date(), 
  pitcherid = 804636
)

# A tibble: 96 × 118
   pitch_type game_date  release_speed release_pos_x release_pos_z player_name
   <chr>      <date>             <dbl>         <dbl>         <dbl> <chr>      
 1 FF         2025-09-06          98.2         -2.35          6.01 Tong, Jonah
 2 CH         2025-09-06          88.2         -2.27          5.83 Tong, Jonah
 3 CH         2025-09-06          86           -2.44          5.83 Tong, Jonah
 4 FF         2025-09-06          97.5         -2.46          5.84 Tong, Jonah
 5 CU         2025-09-06          78.3         -2.75          5.79 Tong, Jonah
 6 FF         2025-09-06          95.6         -2.4           5.84 Tong, Jonah
 7 FF         2025-09-06          96.9         -2.5           5.92 Tong, Jonah
 8 CH         2025-09-06          87.4         -2.43          5.93 Tong, Jonah
 9 CH         2025-09-06          87.4         -2.24          5.84 Tong, Jonah
10 FF         2025-09-06          97.1         -2.39          5.89 Tong, Jonah
# ℹ 86 more rows
# ℹ 112 more variables: batter <dbl>, pitcher <dbl>, events <chr>,
#   description <chr>, spin_dir <lgl>, spin_rate_deprecated <lgl>,
#   break_angle_deprecated <lgl>, break_length_deprecated <lgl>, zone <dbl>,
#   des <chr>, game_type <chr>, stand <chr>, p_throws <chr>, home_team <chr>,
#   away_team <chr>, type <chr>, hit_location <int>, bb_type <chr>,
#   balls <int>, strikes <int>, game_year <int>, pfx_x <dbl>, pfx_z <dbl>, …
…
