SDS 355: Fall 2025 – Run Expectancy
…
Run values for events

retro2016_small |> 
  group_by(event_cd) |>
  summarize(
    sample_desc = first(event_tx),
    mean_run_value = mean(delta_erv)
  ) |>
  arrange(desc(mean_run_value))

# A tibble: 21 × 3
   event_cd sample_desc    mean_run_value
      <int> <chr>                   <dbl>
 1       23 HR/9/L.1-H              1.38 
 2       22 T9/F.1-H                1.01 
 3       21 D9/G+                   0.739
 4       18 E5/G                    0.464
 5       20 S8/G.3-H                0.439
 6       16 HP                      0.318
 7       17 C/E2.2-3;1-2            0.311
 8       14 W                       0.293
 9       11 BK.2-3;1-2              0.277
10        9 WP.3-H(NR);1-2          0.260
# ℹ 11 more rows
…
