SDS 355: Fall 2025 – Win Probability
…
half_innings |>
  group_by(inn_ct, home_lead) |>
  summarize(
    n = n(),
  )

# A tibble: 222 × 3
# Groups:   inn_ct [10]
   inn_ct home_lead     n
    <int>     <int> <int>
 1      1        -9     1
 2      1        -6     2
 3      1        -5     9
 4      1        -4    25
 5      1        -3    61
 6      1        -2   126
 7      1        -1   286
 8      1         0  1255
 9      1         1   355
10      1         2   156
# ℹ 212 more rows
…
Spot check

wpa |>
  select(event_id, bat_home_id, inn_ct, bases, outs_ct, bat_id, home_lead, exp_run_value, exp_home_lead, p_hat, p_hat_exp)

# A tibble: 76 × 11
   event_id bat_home_id inn_ct bases outs_ct bat_id   home_lead exp_run_value
      <int>       <int>  <int> <chr>   <int> <chr>        <int>         <dbl>
 1        1           0      1 000         0 deshd002         0         0.498
 2        2           0      1 100         0 choos001         0         0.858
 3        3           0      1 110         0 belta001         0         1.44 
 4        4           0      1 110         1 fielp001         0         0.921
 5        5           0      1 011         1 fielp001         0         1.36 
 6        6           0      1 010         2 desmi001        -1         0.312
 7        7           1      1 000         0 escoy001        -1         0.498
 8        8           1      1 000         1 gentc001        -1         0.268
 9        9           1      1 000         2 troum001        -1         0.106
10       10           1      1 100         2 pujoa001        -1         0.220
# ℹ 66 more rows
# ℹ 3 more variables: exp_home_lead <dbl>, p_hat <dbl>, p_hat_exp <dbl>
…
