SDS 355: Fall 2025 – Four Factors
…
write_rds(nba, here::here("data/nba.rds"))
```

```{r}
nba <- read_rds(here::here("data/nba.rds"))
```

Inspect the data

nba

# A tibble: 240 × 12
   conference          w     l w_l_percent gb     ps_g  pa_g   srs p_ratio  wpct
   <chr>           <int> <int>       <dbl> <chr> <dbl> <dbl> <dbl>   <dbl> <dbl>
 1 Toronto Raptor…    59    23       0.72  —      112.  104.  7.29   1.08  0.72 
 2 Boston Celtics*    55    27       0.671 4.0    104   100.  3.23   1.04  0.671
 3 Philadelphia 7…    52    30       0.634 7.0    110.  105.  4.3    1.04  0.634
 4 Cleveland Cava…    50    32       0.61  9.0    111.  110.  0.59   1.01  0.61 
 5 Indiana Pacers*    48    34       0.585 11.0   106.  104.  1.18   1.01  0.585
 6 Miami Heat*        44    38       0.537 15.0   103.  103.  0.15   1.00  0.537
 7 Milwaukee Buck…    44    38       0.537 15.0   106.  107. -0.45   0.997 0.537
 8 Washington Wiz…    43    39       0.524 16.0   107.  106   0.53   1.01  0.524
 9 Detroit Pistons    39    43       0.476 20.0   104.  104. -0.26   0.999 0.476
10 Charlotte Horn…    36    46       0.439 23.0   108.  108   0.07   1.00  0.439
# ℹ 230 more rows
# ℹ 2 more variables: logWratio <dbl>, logPratio <dbl>
…
