SDS 355: Fall 2025 – Bradley-Terry models
…
Degrees of Freedom: 660 Total (i.e. Null);  631 Residual
Null Deviance:      823.3 
Residual Deviance: 714.2    AIC: 1704

Wrangle team strengths

strengths <- btm_mlb |>
  BradleyTerry2::BTabilities() |> 
  as_tibble(rownames = "teamID") |>
  arrange(desc(ability))
strengths

# A tibble: 30 × 3
   teamID ability    s.e.      
   <chr>  <BTabilts> <BTabilts>
 1 LAN    0.9187506  0.2307869 
 2 PHI    0.8273696  0.2304666 
 3 SDN    0.8032914  0.2300761 
 4 MIL    0.7890511  0.2299159 
 5 NYA    0.7733974  0.2257321 
 6 ARI    0.7094136  0.2294201 
 7 CLE    0.7000213  0.2261616 
 8 BAL    0.6962859  0.2252221 
 9 ATL    0.6915301  0.2294049 
10 NYN    0.6905312  0.2293995 
# ℹ 20 more rows
…
home <- bt_games |>
  group_by(teamID = HmTm) |>
  summarize(W = sum(home_w), L = sum(away_w))
away <- bt_games |>
  group_by(teamID = VisTm) |>
  summarize(W = sum(away_w), L = sum(home_w))
teams <- bind_rows(home, away) |>
  group_by(teamID) |>
  summarize(W = sum(W), L = sum(L)) |>
  mutate(wpct = W / (W + L)) |>
  left_join(strengths, by = join_by(teamID))
teams

# A tibble: 30 × 6
   teamID     W     L  wpct ability     s.e.      
   <chr>  <int> <int> <dbl> <BTabilts>  <BTabilts>
 1 ANA       63    99 0.389  0.00000000 0.0000000 
 2 ARI       89    73 0.549  0.70941360 0.2294201 
 3 ATL       89    73 0.549  0.69153014 0.2294049 
 4 BAL       91    71 0.562  0.69628592 0.2252221 
 5 BOS       81    81 0.5    0.46502311 0.2243069 
 6 CHA       41   121 0.253 -0.58724852 0.2397303 
 7 CHN       83    79 0.512  0.54370015 0.2287967 
 8 CIN       77    85 0.475  0.41283278 0.2287729 
 9 CLE       92    69 0.571  0.70002125 0.2261616 
10 COL       61   101 0.377  0.04109128 0.2317572 
# ℹ 20 more rows
…
